{
    "general":{
        "type": "object",
        "properties":{
            "message":{
                "type": "string",
                "title": "Twitter Message",
                "default": "Having a blast at the arcade!",
                "description": ""
            },
            "handle":{
                "type": "string",
                "title": "Twitter Handle",
                "default": "@isnapoffical",
                "description": ""
            }      
        }
    }
}
